[{

    "id": 1,
    "cedula": "1306453802",
    "apellidos": "Velez",
    "nombres": "Paul",
    "semestre": "Primero",
    "paralelo": "B"
},
{
    "id": 2,
    "cedula": "1310557887",
    "apellidos": "Velez",
    "nombres": "Rodrigo",
    "semestre": "septimo",
    "paralelo": "B"
},
{
    "id": 3,
    "cedula": "1304369778",
    "apellidos": "Carbo",
    "nombres": "Patricia",
    "semestre": "Decimo",
    "paralelo": "A"
},
{
    "id": 4,
    "cedula": "131411736",
    "apellidos": "Pin",
    "nombres": "Anthonio",
    "semestre": "Cuarto",
    "paralelo": "B"
},
{
    "id": 5,
    "cedula": "1307383244",
    "apellidos": "Solange",
    "nombres": "Marcillo",
    "semestre": "Octavo",
    "paralelo": "A"
},
{
    "id": 6,
    "cedula": "13087628393",
    "apellidos": "Lopez",
    "nombres": "Carlos",
    "semestre": "Cuarto",
    "paralelo": "B"
},
{
    "id": 7,
    "cedula": "1353678532",
    "apellidos": "Zambrano",
    "nombres": "Luis",
    "semestre": "Quinto",
    "paralelo": "A"
},
{
    "id": 8,
    "cedula": "1307262912",
    "apellidos": "Palacios",
    "nombres": "Pablo",
    "semestre": "Decimo",
    "paralelo": "B"
},
{
    "id": 9,
    "cedula": "0976261831",
    "apellidos": "Quiroz",
    "nombres": "Patricia",
    "semestre": "Decimo",
    "paralelo": "A"
},
{
    "id": 10,
    "cedula": "0975713628|1",
    "apellidos": "Velez",
    "nombres": "Gema",
    "semestre": "Sexto",
    "paralelo": "B"
},
{
    "id": 8,
    "cedula": "131411736",
    "apellidos": "Veliz",
    "nombres": "Juan",
    "semestre": "Segundo",
    "paralelo": "B"
},
{
    "id": 9,
    "cedula": "131419220",
    "apellidos": "Moreira",
    "nombres": "Elias",
    "semestre": "Primero",
    "paralelo": "A"
},
{
    "id": 10,
    "cedula": "131324540",
    "apellidos": "Zambrano",
    "nombres": "Luis",
    "semestre": "Cuarto",
    "paralelo": "B"
}
]
